{
        "_id":"c-55",
        "_parentId":"b-40",
        "_type":"component",
        "_component":"text",
        "_classes":"",
        "_layout":"full",
        "title":"How to grow your audience / Organic presence",
        "displayTitle":"How to grow your audience / Organic presence",
        "body":"Now that you’ve created your Instagram account, you can start building your followership.  The best way to grow and strengthen your audience is to create high quality, on-brand content that people want to see in their Instagram feed. Creating strong content also increases the likelihood that your account will be discovered by non-followers, because your posts may appear on the Explore tab (which uses an algorithm to surface interesting content) or News tab (where people see that the users they follow have liked your posts).<br><br>You can also grow your audience by making Instagram part of your day-to-day business and marketing. For example:<br><ul><li>Post a sign at your retail locations with your Instagram account, or share it in communications like emails and postcards</li><li>Run contests or mention your account in the press</li><li>Announce your Instagram account on other platforms like Facebook or Twitter with a link to your account, or provide a link on the homepage of your website</li></ul>",
        "instruction":"",
        "_pageLevelProgress": {
        "_isEnabled": true
        }
    },




//right image and text layout, can be just image   
    {
        "_id":"c-56",
        "_parentId":"b-40",
        "_type":"component",
        "_component":"animate-message",
        "_classes":"",
        "_layout":"full",
        "title":"title",
        "displayTitle":"title",
        "body":"",
        "instruction":"",
        "titleAnimation":"transition.slideRightIn",
        "bodyAnimation":"transition.slideLeftIn",
        "backgroundColor":"#ffffff,#ffffff,#ffffff",
        "_spacing":"20px",
        "_pageLevelProgress": {
        "_isEnabled": true
        },
        "_items": [
        {
            "item_title": "<b>title</b>",
            "body":"<br><img src='http://placehold.it/150x150' style='float:left;width:280px;height:283px;padding-right:10px;'><div style='min-height:283;'' >Lorem ipsum dolor sit amet, consectetur adipiscing elit. Vivamus consequat, leo sit amet malesuada accumsan, nibh risus semper odio, ac ultricies ligula orci nec lectus. Mauris dapibus ornare nibh, sed dapibus turpis molestie sed. Etiam sed neque non arcu scelerisque fermentum. Vestibulum dignissim molestie libero, sollicitudin dignissim nisl vulputate id. In nunc nibh, aliquam ac volutpat vel, viverra nec felis. Etiam non tincidunt lorem. Nunc hendrerit erat enim, quis pulvinar velit varius et."
        }
    ]
    },

///add popup
{
        "_id":"c-50",
        "_parentId":"b-50",
        "_type":"component",
        "_component":"animate-message",
        "_classes":"",
        "_layout":"left",
        "title":"<div style='text-align:center;'>How to reach the right people on Instagram 1</div>",
        "displayTitle":"How to reach the right people on Instagram",
        "body":"",
        "instruction":"",
        "_animationOnView":"top",
        "titleAnimation":"transition.slideRightIn",
        "bodyAnimation":"transition.slideLeftIn",
        "backgroundColor":"#d0dbfa,#d0dbfa,#d0dbfa,#d0dbfa,#d0dbfa,#d0dbfa",
        "_cornerRadius":"0px",
        "_spacing":"5px",
        "_pageLevelProgress": {
        "_isEnabled": true
        },
        "_items": [
        {
            "item_title": "<div style='font-size:18pt;text-align:center; padding:20px; padding-top:30px'><b>Choose quality over quantity</b></div>"
        },
        {
            "item_title": "<div style='font-size:18pt;text-align:center; padding:20px; padding-top:30px'><b>Choose quality over quantity</b></div>",
            "popup_body":"Instagram2 is a large community made of passionate people. So when it comes to followers, it’s more than a numbers game. Avoid overusing hashtags, creating contests and giveaways, or using 3rd parties to buy followers. While your follower count may grow, these people are less likely to be your ideal target audience."
        },
        {
            "item_title": "<div style='font-size:18pt;text-align:center; padding:20px; padding-top:30px'><b>Choose quality over quantity</b></div>",
            "popup_body":"Instagram3 is a large community made of passionate people. So when it comes to followers, it’s more than a numbers game. Avoid overusing hashtags, creating contests and giveaways, or using 3rd parties to buy followers. While your follower count may grow, these people are less likely to be your ideal target audience."
        },
        {
            "item_title": "<div style='font-size:18pt;text-align:center; padding:20px; padding-top:30px'><b>Choose quality over quantity</b></div>",
            "popup_body":"Instagram4 is a large community made of passionate people. So when it comes to followers, it’s more than a numbers game. Avoid overusing hashtags, creating contests and giveaways, or using 3rd parties to buy followers. While your follower count may grow, these people are less likely to be your ideal target audience."
        },
        {
            "item_title": "<div style='font-size:18pt;text-align:center; padding:20px; padding-top:25px'><b>Choose quality over quantity</b></div>",
            "popup_body":"Instagram5 is a large community made of passionate people. So when it comes to followers, it’s more than a numbers game. Avoid overusing hashtags, creating contests and giveaways, or using 3rd parties to buy followers. While your follower count may grow, these people are less likely to be your ideal target audience."
        },
        {
            "item_title": "<div style='font-size:18pt;text-align:center; padding:20px; padding-top:30px'><b>Choose quality over quantity</b></div>",
            "popup_body":"Instagram6 is a large community made of passionate people. So when it comes to followers, it’s more than a numbers game. Avoid overusing hashtags, creating contests and giveaways, or using 3rd parties to buy followers. While your follower count may grow, these people are less likely to be your ideal target audience."
        }
      ]
      },
// add this variable to disable animations
"_disableAnimation":true,
//for single message you can use _delay to control overall timing example:
"_delay:1000" //for a 1 second delay