[
	{
        "_id":"c-01",
        "_parentId":"b-01",
        "_type":"component",
        "_component":"animate-message",
        "_classes":"",
        "_layout":"full",
        "title":"Animate Message Component",
        "displayTitle":"Animate Message Component",
        "body":"",
        "instruction":"",
        "_animationOnView":"top",
        "titleAnimation":"transition.slideRightIn",
        "bodyAnimation":"transition.slideLeftIn",
        "backgroundColor":"#4267b2,#4267b2,#4267b2",
        "_cornerRadius":"0px",
        "_spacing":"5px",
        "_pageLevelProgress": {
        	"_isEnabled": true
        },
        "_items": [
	    	{
	        	"item_title": "<div style='font-size:18pt;text-align:center; padding:20px; padding-top:30px'><b>Choose quality over quantity</b></div>"
	    	},
	        {
	            "item_title": "<div style='font-size:18pt;text-align:center; padding:20px; padding-top:30px'><b>Choose quality over quantity</b></div>",
	            "popup_body":"Instagram2 is a large community made of passionate people. So when it comes to followers, it’s more than a numbers game. Avoid overusing hashtags, creating contests and giveaways, or using 3rd parties to buy followers. While your follower count may grow, these people are less likely to be your ideal target audience."
	        },
	        {
	            "item_title": "<div style='font-size:18pt;text-align:center; padding:20px; padding-top:30px'><b>Choose quality over quantity</b></div>",
	            "popup_body":"Instagram3 is a large community made of passionate people. So when it comes to followers, it’s more than a numbers game. Avoid overusing hashtags, creating contests and giveaways, or using 3rd parties to buy followers. While your follower count may grow, these people are less likely to be your ideal target audience."
	        }
    	]
    },
	{
	    "_id":"c-02",
	    "_parentId":"b-02",
	    "_type":"component",
	    "_component":"animate-image-stack",
	    "_classes":"",
	    "_layout":"full",
	    "title":"animation stack",
	    "displayTitle":"Animate Image Stack Component",
	    "body":"",
	    "instruction":"",
	    "_pageLevelProgress": {
	    "_isEnabled": true
	    },
	    "_items": [
	        {
	            "body":"<img src='course/en/images/ad.jpg'/>",
	            "opacity":".5",
	            "top":"0",
	            "right":"0"
	        },
	        {
	            "body":"<img src='course/en/images/ad.jpg'/>",
	            "opacity":"0",
	            "animation":"in",
	            "time":"600",
	            "delay":"500",
	            "top":"0",
	            "right":"20"
	        },
	        {
	            "body":"<b>texttexttexttext</b><br>text2",
	            "opacity":"0",
	            "animation":"in",
	            "time":"600",
	            "delay":"1000",
	            "top":"50",
	            "right":"100"
	        }
	    ]
	},
	{
	    "_id":"c-03",
	    "_parentId":"b-03",
	    "_type":"component",
	    "_component":"arrow-graphic",
	    "_classes":"",
	    "_layout":"full",
	    "title":"Title FPO",
	    "displayTitle":"Arrow Graphic Component",
	    "body":"body copy",
	    "instruction":"",
	    "_graphic": {
	        "alt": "alt text",
	        "large": "http://placehold.it/400x300?text=FPO Image",
	        "small": "http://placehold.it/400x300?text=FPO Image",
	        "attribution":"Copyright © 2015"
	    }
	},
	{
	    "_id":"c-04",
	    "_parentId":"b-04",
	    "_type":"component",
	    "_delay":"800",
	    "_color":"#4267B2",
	    "_classes":"",
	    "_component":"arrowbox",
	    "_layout":"dull",
	    "title":"Arrowbox",
	    "displayTitle":"Arrowbox Component",
	    "body":"<div style='color:#ffffff;'><b>Vestibulum tincidunt erat vitae nisl dapibus, bibendum cursus eros porttitor. Vestibulum consequat pellentesque felis. Nulla magna neque, suscipit quis urna sit amet, tempus feugiat velit. Sed quis risus leo. Donec in lobortis est. Morbi auctor massa eget turpis ornare gravida. Cras fringilla bibendum lobortis. Sed iaculis lobortis augue vitae rhoncus. Vestibulum fringilla justo non massa efficitur, in elementum diam vehicula. Proin</b><a href='#'><div style='color:#ffffff;text-decoration: underline;'>link here</div></a></div>",
	    "_popupBody":"popup body",
	    "_popupTitle":"popup title",
	    "instruction":"",
	    "_pageLevelProgress": {
	        "_isEnabled": true
	    }
	},
	{
        "_id":"c-05",
        "_parentId":"b-05",
        "_type":"component",
        "_component":"animation",
        "_classes":"",
        "_layout":"full",
        "title":"Animation Component",
        "displayTitle":"Animation Component",
        "animationName":"CSS Slide In Animation",
        "animation":"",
        "body":"Because Audience Network uses the same people-based targeting we offer on Facebook, you’ll have  control over who your ads are delivered to through these targeting options.<br><br><div id='TestAnimation2'></div>",
        "_resources": {
            "leftImage":"course/en/images/animation_images/core_audiences.png",
            "centerImage":"course/en/images/animation_images/custom_audiences.png",
            "rightImage":"course/en/images/animation_images/lookalike_audiences.png",
            "leftText":"Core Audiences",
            "centerText":"Custom Audiences",
            "rightText":"Lookalike Audiences"
        },
        "instruction":"",
        "_pageLevelProgress": {
            "_isEnabled": false
        }
    },
	{
		"_id":"c-08",
		"_parentId":"b-08",
		"_type":"component",
		"_component":"co-jump",
		"_classes":"color-test",
		"_autoComplete":true,
		"_preLinkBody":"Click the button below to finish this course. Note: <a href='#'>click here</a> to verify that status bars for each module are complete.<br>",
		"_linkBody":"<div style = 'text-align:center;padding:8px;'><button class='buttons-action'><b>I'M FINISHED WITH THIS COURSE</b></button></div><br> ",
		"_postLinkBody":"",
		"_link":"",
		"_pageLevelProgress": {
			"_isEnabled": false
		}
	},
	{
		"_id":"c-09",
		"_parentId":"b-09",
		"_type":"component",
		"_component":"content-accordion",
		"_classes":"",
		"_layout":"full",
		"title": "Accordion Component",
		"displayTitle": "Accordion",
		"body": "This is optional body text. Select the headings below to reveal the text.",
		"instruction": "",
		"_setCompletionOn":"inview",
		"_items": [
			{
				"alt": "Heading 1",
				"title": "Heading 1",
				"body": "This is display text 1."
			},
			{
				"alt": "Heading 2",
				"title": "Heading 2",
				"body": "This is display text 2."
			},
			{
				"alt": "Heading 3",
				"title": "Heading 3",
				"body": "This is display text 3."
			}
		]
  	},
	{
	   "_id": "c-11",
	   "_parentId": "b-11",
	   "_classes": "",
	   "_type":"component",
	   "_layout": "full",
	   "_component": "narrative",
	   "title": "Narrative",
	   "displayTitle": "Narrative Component",
	   "body": "This is optional body text. Select the forward arrows to move through the narrative on a desktop, or swipe the images and select the plus icons to do so on mobile.",
	   "instruction": "",
	   "_setCompletionOn": "inview",
	   "_items": [
		   {
			   "title": "Narrative stage 1 title",
			   "body": "This is display text 1. If viewing on desktop or tablet, this text will appear to the right of the image. On mobile, you’ll need to select the plus icon to reveal this text.",
			   "_graphic": {
				   "src": "course/en/images/animation_images/module_1_instream_mobile.png",
				   "alt": "First graphic",
				   "title": "Second graphic"
			   },
			   "strapline": "Here is the first..."
		   },
		   {
			   "title": "Narrative stage 2 title",
			   "body": "This is display text 2.",
			   "_graphic": {
				   "src": "course/en/images/animation_images/module_1_interstitial.png",
				   "alt": "Second graphic",
				   "title": "Second graphic"
			   },
			   "strapline": "Now comes the second..."
		   },
		   {
			   "title": "Narrative stage 3 title",
			   "body": "This is display text 3.",
			   "_graphic": {
				   "src": "course/en/images/animation_images/module_1_native.png",
				   "alt": "Third graphic",
				   "title": "Third graphic"
			   },
			   "strapline": "Third here!"
		   }
	   ]
   },
   {
	   "_id":"c-12",
	   "_parentId":"b-12",
	   "_type":"component",
	   "_component":"content-standard",
	   "_classes":"",
	   "_layout":"full",
	   "title":"Content Standard Component",
	   "displayTitle":"Content Standard Component",
	   "body":"BODY",
	   "instruction":"",
	   "_graphic": {
		   "class": "center-image",
		   "alt": "ALT_ATTR",
		   "title": "TITLE_ATTR",
		   "large": "",
		   "medium": "",
		   "small": ""
	   },
	   "postGraphicBody": "text that appears after the image"
   },
   {
	   "_id": "c-15",
	   "_parentId": "b-15",
	   "_type": "component",
	   "_component": "flipCard",
	   "_classes": "",
	   "_layout": "full",
	   "title": "Flip Card",
	   "displayTitle": "Flip Card Component",
	   "body": "This is optional body text. Click the image below to reveal the text.",
	   "instruction": "",
	   "_items": [
		   {
			   "frontImageSrc": "assets/flip_1.png",
			   "frontHeading": "Front Heading",
			   "frontListOfOptions": [
				   "Front list of options 1",
				   "Front list of options 2",
				   "Front list of options 3"
			   ],
			   "backImageSrc": "",
			   "backHeading": "To overcome Global Climate Change challenges, it is essential to:",
			   "backListOfOptions": [
				   "Avail technology no matter how expensive it be, to reduce greenhouse releases.",
				   "Persuade the citizens of a nation to get together and work towards a development program.",
				   "Follow rules and regulations set by the government to avoid excessive greenhouse emissions."
			   ],
			   "textShadow":"rgba(0, 0, 0, 0.6) 2px 2px 2px"
		   },
		   {
			   "frontImageSrc": "assets/flip_2.png",
			   "frontHeading": "Front Heading",
			   "frontListOfOptions": [
				   "Front list of options 1",
				   "Front list of options 2",
				   "Front list of options 3"
			   ],
			   "backImageSrc": "",
			   "backHeading": "To overcome Global Climate Change challenges, it is essential to:",
			   "backListOfOptions": [
				   "Avail technology no matter how expensive it be, to reduce greenhouse releases.",
				   "Persuade the citizens of a nation to get together and work towards a development program.",
				   "Follow rules and regulations set by the government to avoid excessive greenhouse emissions."
			   ],
			   "textShadow":"rgba(0, 0, 0, 0.6) 2px 2px 2px"
		   }
	   ],
	   "_flipType": "singleFlip",
	   "_flipTime": 400
   },
   {
	   "_id":"c-16",
	   "_parentId":"b-16",
	   "_type":"component",
	   "_component":"graphic",
	   "_classes":"",
	   "_layout":"full",
	   "title":"Graphic Object Component",
	   "displayTitle":"Graphic Object Component",
	   "body":"Hi everybody!",
	   "instruction":"",
	   "_graphic": {
		   "alt": "alt text",
		   "large": "course/en/images/atlas.png",
		   "small": "course/en/images/atlas.png",
		   "attribution":"Copyright © 2015"
	   }
   },
   {
	   "_id": "c-17",
	   "_parentId":"b-17",
	   "_classes": "",
	   "_type":"component",
	   "_component": "hotgraphic",
	   "_layout": "full",
	   "title": "Hot graphic",
	   "displayTitle": "Hot graphic Component",
	   "body": "This is optional body text. Select the hotspots on the image to reveal the text. This component will scale down to a narrative when viewed on mobile.",
	   "mobileBody": "This is optional body text that will be shown when viewed on mobile.",
	   "instruction":"",
	   "mobileInstruction": "This is optional instruction text that will be shown when viewed on mobile.",
	   "_setCompletionOn":"allItems",
	   "_useGraphicsAsPins": true,
	   "_canCycleThroughPagination": false,
	   "_hidePagination": false,
	   "_graphic": {
		 "src": "course/en/images/hot_graphic.jpg",
		 "alt": "alt text"
	   },
	   "_items": [
		   {
			   "title": "Hotspot 1 title",
			   "body": "This is display text 1.",
			   "_graphic": {
				   "src": "course/en/images/image1.jpg",
				   "alt": "alt text",
				   "_classes": "cols-2 rows-1"
			   },
			   "pinAlt": "alt text",
			   "strapline": "strapline...",
			   "_classes": "",
			   "_top": 0,
			   "_left": 0
		   },
		   {
			   "title": "Hotspot 2 title",
			   "body": "This is display text 2.",
			   "_graphic": {
				   "src": "course/en/images/image2.jpg",
				   "alt": "alt text",
				   "_classes": "cols-2 rows-1"
			   },
			   "pinAlt": "alt text",
			   "strapline": "strapline...",
			   "_classes": "",
			   "_top": 0,
			   "_left": 50
		   },
		   {
			   "title": "Hotspot 3 title",
			   "body": "This is display text 3.",
			   "_graphic": {
				   "src": "course/en/images/image3.jpg",
				   "alt": "alt text",
				   "_classes": "cols-2 rows-1"
			   },
			   "pinAlt": "alt text",
			   "strapline": "strapline...",
			   "_classes": "",
			   "_top": 50,
			   "_left": 0
		   },
		   {
			   "title": "Hotspot 4 title",
			   "body": "This is display text 4.",
			   "_graphic": {
				   "src": "course/en/images/image4.jpg",
				   "alt": "alt text",
				   "_classes": "cols-2 rows-1"
			   },
			   "pinAlt": "alt text",
			   "strapline": "strapline...",
			   "_classes": "",
			   "_top": 50,
			   "_left": 50
		   }
	   ]
   },
   {
	   "_id": "c-18",
	   "_parentId": "b-18",
	   "_classes": "",
	   "_layout": "left",
	   "_type": "component",
	   "_component": "matching",
	   "_attempts": 2,
	   "_shouldDisplayAttempts": false,
	   "_isRandom": true,
	   "_canShowModelAnswer": true,
	   "_canShowMarking": true,
	   "_recordInteraction": true,
	   "_questionWeight": 10,
	   "title": "Matching",
	   "displayTitle": "Matching Component",
	   "body": "Basically what you need to do is match the questions below with the drop down box option.",
	   "instruction":"",
	   "_buttons": {
		 "_submit": {
		   "buttonText": "Submit",
		   "ariaLabel": "Select here to submit your answer."
		 },
		 "_reset": {
		   "buttonText": "Reset",
		   "ariaLabel": ""
		 },
		 "_showCorrectAnswer": {
		   "buttonText": "Correct Answer",
		   "ariaLabel": ""
		 },
		 "_hideCorrectAnswer": {
		   "buttonText": "My Answer",
		   "ariaLabel": ""
		 },
		 "_showFeedback": {
		   "buttonText": "Show feedback",
		   "ariaLabel": ""
		 },
		 "remainingAttemptsText": "attempts remaining",
		 "remainingAttemptText": "final attempt"
	   },
	   "_feedback": {
		   "correct": "This feedback will appear if you answered the question correctly.",
		   "_incorrect": {
			   "notFinal": "",
			   "final": "This feedback will appear if you answered the question incorrectly."
		   },
		   "_partlyCorrect": {
			   "notFinal": "",
			   "final": "This feedback will appear if you answered part of the question correctly."
		   }
	   },
	   "placeholder": "select an option",
	   "_items": [
		   {
			   "text": "Pick option two",
			   "_options": [
				   {
					   "text": "Option one",
					   "_isCorrect": false
				   },
				   {
					   "text": "Option two (correct)",
					   "_isCorrect": true
				   },
				   {
					   "text": "Option three",
					   "_isCorrect": false
				   }
			   ]
		   },
		   {
			   "text": "Pick option three",
			   "_options": [
				   {
					   "text": "Option one",
					   "_isCorrect": false
				   },
				   {
					   "text": "Option two",
					   "_isCorrect": false
				   },
				   {
					   "text": "Option three (correct)",
					   "_isCorrect": true
				   }
			   ]
		   },
		   {
			   "text": "Pick option one",
			   "_options": [
				   {
					   "text": "Option one (correct)",
					   "_isCorrect": true
				   },
				   {
					   "text": "Option two",
					   "_isCorrect": false
				   },
				   {
					   "text": "Option three",
					   "_isCorrect": false
				   }
			   ]
		   }
	   ]
   },
   {
	   "_id":"c-19",
	   "_parentId":"b-19",
	   "_type":"component",
	   "_component":"mcq",
	   "_classes":"",
	   "_layout":"full",
	   "_attempts":1,
	   "_shouldDisplayAttempts": false,
	   "_questionWeight":1,
	   "_isRandom":false,
	   "_selectable":1,
	   "_canShowModelAnswer": true,
	   "_canShowMarking": true,
	   "_recordInteraction":true,
	   "title": "MCQ",
	   "displayTitle": "MCQ",
	   "body": "Which of the following options would you consider to be correct?",
	   "instruction": "",
	   "_items": [
	   {
		 "text": "This is option 1.",
		 "_shouldBeSelected":true
	   },
	   {
		 "text": "This is option 2.",
		 "_shouldBeSelected":false,
		 "feedback":"Option two incorrect feedback"
	   },
	   {
		 "text": "This is option 3.",
		 "_shouldBeSelected":false
	   },
	   {
		 "text": "This is option 4.",
		 "_shouldBeSelected":false
	   }
	   ],
	   "_feedback":{
	   "correct":"Congratulations, this is the correct feedback.",
	   "_incorrect": {
		 "notFinal": "",
		 "final": "This feedback will appear if you answered the question incorrectly."
	   },
	   "_partlyCorrect": {
		 "notFinal": "",
		 "final": "This feedback will appear if you answered the question correctly."
	   }
	   },
	   "_buttons": {
	   "_submit": {
		 "buttonText": "Submit",
		 "ariaLabel": "Select here to submit your answer."
	   },
	   "_reset": {
		 "buttonText": "Reset",
		 "ariaLabel": ""
	   },
	   "_showCorrectAnswer": {
		 "buttonText": "Correct Answer",
		 "ariaLabel": ""
	   },
	   "_hideCorrectAnswer": {
		 "buttonText": "My Answer",
		 "ariaLabel": ""
	   },
	   "_showFeedback": {
		 "buttonText": "Show feedback",
		 "ariaLabel": ""
	   },
	   "remainingAttemptsText": "attempts remaining",
	   "remainingAttemptText": "final attempt"
	   },
	   "_pageLevelProgress": {
	   "_isEnabled": true
	   }
   },
   {
		"_id": "c-22",
		"_parentId":"b-22",
		"_type":"component",
		"_component":"reveal",
		"_classes":"",
		"_layout":"full",
		"_direction":"left",
		"title": "",
		"displayTitle": "This is a reveal demo",
		"body": "",
		"first": {
			"src": "course/en/images/nar_1.png",
			"alt": "First item",
			"title": "First item",
			"body": "Here is the first item",
			"_maxCharacters": 10,
			"moreText": "More"
		},
		"second": {
			"src": "course/en/images/nar_2.png",
			"alt": "Second item",
			"title": "Second item",
			"body": "Here is the second item",
			"_maxCharacters": 50,
			"moreText": "More"
		},
		"control": {
			"showText": "Show",
			"hideText": "Hide"
		}
   },
   {
       "_id":"c-23",
       "_parentId":"b-23",
       "_type":"component",
       "_component":"slider",
       "_classes":"",
       "_layout":"full",
       "title": "Slider type component",
       "displayTitle":"Slider type component",
       "body":"Question text here",
       "instruction": "",
       "_attempts": 2,
       "_shouldDisplayAttempts": false,
       "_questionWeight":1,
       "_canShowModelAnswer": true,
       "_canShowMarking": true,
       "_recordInteraction": true,
       "_showNumber": true,
       "_showScaleIndicator": true,
       "_showScale": true,
       "labelStart": "incomplete",
       "labelEnd": "complete",
       "_scaleStart": 1,
       "_scaleEnd": 10,
       "_scaleStep": 1,
       "_correctAnswer": "",
       "_correctRange": {
           "_bottom": 4,
           "_top": 9
       },
       "_buttons": {
			"_submit": {
			"buttonText": "Submit",
			"ariaLabel": "Select here to submit your answer."
			},
			"_reset": {
			"buttonText": "Reset",
			"ariaLabel": ""
			},
			"_showCorrectAnswer": {
			"buttonText": "Correct Answer",
			"ariaLabel": ""
			},
			"_hideCorrectAnswer": {
			"buttonText": "My Answer",
			"ariaLabel": ""
			},
			"_showFeedback": {
			"buttonText": "Show feedback",
			"ariaLabel": ""
			},
			"remainingAttemptsText": "attempts remaining",
			"remainingAttemptText": "final attempt"
       },
       "_feedback": {
           "correct": "This feedback will appear if you answered the question correctly.",
           "_incorrect": {
               "notFinal": "",
               "final": "This feedback will appear if you answered the question incorrectly."
           },
           "_partlyCorrect": {
               "notFinal": "",
               "final": "This feedback will appear if you answered part of the question correctly."
           }
       },
       "_pageLevelProgress": {
           "_isEnabled": true
       }
    },
	{
	    "_id":"c-24",
	    "_parentId":"b-24",
	    "_type":"component",
	    "_component":"stacker",
	    "_classes":"",
	    "_layout":"full",
	    "_attempts":1,
	    "_questionWeight":1,
	    "_shouldUseOrdering": false,
	    "_shouldUseSliding": true,
	    "title": "Key benefits of a vertical scrolling approach",
	    "displayTitle": "",
	    "body": "Can you identify a few of the benefits that a vertical scrolling approach offers over the traditional back and next approach?",
	    "instruction":"Select one or more options from the list below and select Submit.",
	    "_items": [
	        {
	            "_options": [{
	                "text": "Text one one",
	                "image": "",
	                "_isCorrect": true
	            }, {
	                "text": "Text one two",
	                "_isCorrect": false
	            }, {
	                "text": "Text one three",
	                "_isCorrect": false
	            }]
	        },
	        {
	            "_options": [{
	                "text": "Text two one",
	                "_isCorrect": true
	            }, {
	                "text": "Text two two",
	                "_isCorrect": false
	            }]
	        },
	        {
	            "_options": [{
	                "text": "Text three one",
	                "_isCorrect": true
	            }, {
	                "text": "Text three two",
	                "_isCorrect": false
	            }]
	        },
	        {
	            "_options": [{
	                "text": "Text four one",
	                "_isCorrect": true
	            }, {
	                "text": "Text four two",
	                "_isCorrect": false
	            }]
	        }
	    ],
	    "_feedback":{
	        "correct": "That’s correct. Your users are almost certainly using vertical scrolling whenever they interact with the web so why reinvent the wheel? Scrolling is also a given when viewing content on a smartphone so any page which is structured with this in mind will help make the design and its navigation feel well thought through for mobile. Clustering related content within a single page should definitely reduce the need to navigate to a different page, as well as that repetitive ‘Click next to continue’ instruction as well.<br><br>Of course, we should always try to gain the learners attention early on the page, it’s just that now, when we have it, we aren’t asking them to go somewhere else. The design challenge is now to give them a reason to scroll and venture down ‘below the fold’.  To continue close this tutor pop-up.",
	        "_incorrect": {
	            "notFinal": "Sorry, that’s not right. Your users are almost certainly using vertical scrolling whenever they interact with the web so why reinvent the wheel? Scrolling is also a given when viewing content on a smartphone so any page which is structured with this in mind will help make the design and its navigation feel well thought through for mobile. Clustering related content within a single page should definitely reduce the need to navigate to a different page, as well as that repetitive ‘Click next to continue’ instruction as well.<br><br>Of course, we should always try to gain the learners attention early on the page, it’s just that now, when we have it, we aren’t asking them to go somewhere else. The design challenge is now to give them a reason to scroll and venture down ‘below the fold’.  To continue close this tutor pop-up.",
	            "final": "Final feedback! Sorry, that’s not right. Your users are almost certainly using vertical scrolling whenever they interact with the web so why reinvent the wheel? Scrolling is also a given when viewing content on a smartphone so any page which is structured with this in mind will help make the design and its navigation feel well thought through for mobile. Clustering related content within a single page should definitely reduce the need to navigate to a different page, as well as that repetitive ‘Click next to continue’ instruction as well.<br><br>Of course, we should always try to gain the learners attention early on the page, it’s just that now, when we have it, we aren’t asking them to go somewhere else. The design challenge is now to give them a reason to scroll and venture down ‘below the fold’.  To continue close this tutor pop-up."
	        },
	        "_partlyCorrect": {
	            "notFinal": "That’s not quite right. Your users are almost certainly using vertical scrolling whenever they interact with the web so why reinvent the wheel? Scrolling is also a given when viewing content on a smartphone so any page which is structured with this in mind will help make the design and its navigation feel well thought through for mobile. Clustering related content within a single page should definitely reduce the need to navigate to a different page, as well as that repetitive ‘Click next to continue’ instruction as well.<br><br>Of course, we should always try to gain the learners attention early on the page, it’s just that now, when we have it, we aren’t asking them to go somewhere else. The design challenge is now to give them a reason to scroll and venture down ‘below the fold’.  To continue close this tutor pop-up.",
	            "final": "Final feedback! That’s not quite right. Your users are almost certainly using vertical scrolling whenever they interact with the web so why reinvent the wheel? Scrolling is also a given when viewing content on a smartphone so any page which is structured with this in mind will help make the design and its navigation feel well thought through for mobile. Clustering related content within a single page should definitely reduce the need to navigate to a different page, as well as that repetitive ‘Click next to continue’ instruction as well.<br><br>Of course, we should always try to gain the learners attention early on the page, it’s just that now, when we have it, we aren’t asking them to go somewhere else. The design challenge is now to give them a reason to scroll and venture down ‘below the fold’.  To continue close this tutor pop-up."
	        }
	    },
	    "_buttons": {
	        "submit": "Submit",
	        "reset": "Reset",
	        "showCorrectAnswer": "Show Correct",
	        "hideCorrectAnswer": "Hide Correct"
	    }
	},
	{
	    "_id":"c-25",
	    "_parentId":"b-25",
	    "_type":"component",
	    "_component":"text",
	    "_classes":"",
	    "_layout":"full",
	    "title":"Text Componenet",
	    "displayTitle":"Text Componenet",
	    "body":"This component you're reading is a text component. All components take this form of a title and body - except a blank component. However it's important to realise that title and body attributes are not needed. <br><br>Take for instance the media component opposite or below on a smaller device - has no body attribute. Instead of the HTML being rendered Adapt simply doesn't render it. The title attribute is simply a break tag to push the media component level with the opposite component.",
	    "instruction":""
	},
	{
	    "_id":"c-26",
	    "_parentId":"b-26",
	    "_type":"component",
	    "_component":"textinput",
	    "_classes":"",
	    "_layout":"full",
	    "title": "Text Input component",
	    "displayTitle": "Text Input component",
	    "body": "If A is 1% and Z is 26%, what are B, C and D?",
	    "instruction": "",
	    "_attempts": 1,
	    "_shouldDisplayAttempts": false,
	    "_questionWeight":10,
	    "_isRandom":false,
	    "_canShowModelAnswer": true,
	    "_canShowMarking": true,
	    "_recordInteraction": true,
	    "_allowsAnyCase": true,
	    "_allowsPunctuation": true,
	    "_buttons": {
	      "_submit": {
	        "buttonText": "Submit",
	        "ariaLabel": "Select here to submit your answer."
	      },
	      "_reset": {
	        "buttonText": "Reset",
	        "ariaLabel": ""
	      },
	      "_showCorrectAnswer": {
	        "buttonText": "Correct Answer",
	        "ariaLabel": ""
	      },
	      "_hideCorrectAnswer": {
	        "buttonText": "My Answer",
	        "ariaLabel": ""
	      },
	      "_showFeedback": {
	        "buttonText": "Show feedback",
	        "ariaLabel": ""
	      },
	      "remainingAttemptsText": "attempts remaining",
	      "remainingAttemptText": "final attempt"
	    },
	    "_feedback": {
	        "correct": "This feedback will appear if you answered the question correctly.",
	        "_incorrect": {
	            "notFinal": "",
	            "final": "This feedback will appear if you answered the question incorrectly."
	        },
	        "_partlyCorrect": {
	            "notFinal": "",
	            "final": "This feedback will appear if you answered part of the question correctly."
	        }
	    },
	    "_items": [
	        {
	            "prefix": "B:",
	            "suffix": "%",
	            "_answers": [
	                "2",
	                "two"
	            ],
	            "placeholder": "Enter answer here"
	        },
	        {
	            "prefix": "C:",
	            "suffix": "%",
	            "_answers": [
	                "3",
	                "three"
	            ],
	            "placeholder": "Enter answer here"
	        },
	        {
	            "prefix": "D:",
	            "suffix": "%",
	            "_answers": [
	                "4",
	                "four"
	            ],
	            "placeholder": "Enter answer here"
	        }
	    ]
	},
	{
	    "_id": "c-28",
	    "_parentId": "b-28",
	    "_type": "component",
	    "_component": "flexbox-list",
	    "_classes": "",
	    "_layout": "full",
	    "title": "Factors of a Successful Brand Campaign",
	    "displayTitle": "Factors of a Successful Brand Campaign",
	    "body": "We believe there are common factors that most brand campaigns need when they are trying to drive brand awareness.",
	    "_mainflex": "main",
	    "show_header_boolean": false,
	    "header_title": "Header Title",
	    "header_fontsize": "38",
	    "bodytitle_fontsize": "24",
	    "body_fontsize": "12",
	    "header_fontcolor": "#000066",
	    "bodytitle_fontcolor": "#000066",
	    "body_fontcolor": "#000066",
	    "body_color": "#ffffff",
	    "header_image": "course/en/images/flexboxlist/header_img.jpg",
	    "instruction": "",
	    "titleAnimation":"transition.slideRightIn",
	    "bodyAnimation":"transition.slideLeftIn",
	    "_pageLevelProgress": {
	        "_isEnabled": false
	    },
	    "_items": [
	        {
	            "_row": [
	                {
	                    "item_title": "Brand Awareness",
	                    "item_body": "Total number of people recalling the ad per dollar spent",
	                    "item_image": "course/en/images/tags_actions.png"
	                },
	                {
	                    "item_title": "Reach",
	                    "item_body": "Number of people reached per dollar spent",
	                    "item_image": "course/en/images/tags_bp.png"
	                },
	                {
	                    "item_title": "Attention",
	                    "item_body": "Amount of time people spend looking at ads relative to average ad",
	                    "item_image": "course/en/images/tags_ed.png"
	                }

	            ]
	        }
	    ]
	},
	{
	    "_id":"c-29",
	    "_parentId":"b-29",
	    "_type":"component",
	    "_component":"framed-video",
	    "_classes":"",
	    "_layout":"full",
	    "title":"Framed Video Component",
	    "displayTitle":"Framed Video Component",
	    "body":"",
	    "instruction":"",
	    "_videoPosition":"top",
	    "_videoPt":{"x":"21px","y":"68px"},
	    "_componentHeight":"320px",
	    "_componentWidth":"360px",
	    "_items": [
	        {
	            "frame":  "<img width='100%' height='100%' src='course/en/video/attribution_in_action.jpg'/>"
	        },
	        {
	            "video":  "<img src='course/en/video/attribution_in_action.mp4' width='210px' />"
	        }
	    ]
	},
	{
	    "_id":"c-30",
	    "_parentId":"b-30",
	    "_type":"component",
	    "_component":"hotgrid",
	    "_classes":"",
	    "_layout":"full",
	    "title":"Adapt Hotgrid",
	    "displayTitle":"Adapt Hotgrid",
	    "body":"Lorem ipsum dolor sit amet, consectetuer adipiscing elit, sed diam nonummy nibh euismod tincidunt ut laoreet dolore magna aliquam erat volutpat.Ut wisi enim ad minim veniam, quis nostrud exerci tation ullamcorper suscipit lobortis.",
	    "instruction":"",
	    "_columns":3,
	    "_items": [
	        {
	            "title": "Grid Item 1",
	            "body": "This is display text 1. Lorem ipsum dolor sit amet, consectetuer adipiscing elit, sed diam nonummy nibh euismod tincidunt ut laoreet dolore magna aliquam erat volutpat. Ut wisi enim ad minim veniam, quis nostrud exerci tation ullamcorper suscipit lobortis nisl ut aliquip ex ea commodo consequat.",
	            "itemAria": "Item 1. Select here to open.",
	            "_graphic": {
	                "src": "http://placehold.it/150x150",
	                "srcHover":"http://placehold.it/150x150",
	                "srcVisited":"http://placehold.it/150x150",
	                "alt": "",
	                "title": ""
	            },
	             "_itemGraphic": {
	                "src": "http://placehold.it/150x150",
	                "alt": "alt text"
	            }
	        }
	    ]
	},
	{
	    "_id":"c-31",
	    "_parentId":"b-31",
	    "_type":"component",
	    "_component":"mcq-truefalse",
	    "_classes":"",
	    "_layout":"full",
	    "_attempts":1,
	    "_shouldDisplayAttempts": false,
	    "_questionWeight":1,
	    "_isRandom":false,
	    "_selectable":1,
	    "title": "Q 5",
	    "displayTitle": "5.",
	    "_selfSubmitButton":false,
	    "body": "Are you planning to place lead ads on behalf of more than one business through a single account?",
	    "instruction": "",
	    "_items": [
	        {
	          "text": "Yes",
	          "_shouldBeSelected":true
	        },
	        {
	          "text": "No",
	          "_shouldBeSelected":false,
	          "feedback":"Option two incorrect feedback"
	        }
	    ],
	    "_feedback":{
	    "correct":"Congratulations, this is the correct feedback.",
	    "_incorrect": {
	      "notFinal": "",
	      "final": "This feedback will appear if you answered the question incorrectly."
	    },
	    "_partlyCorrect": {
	      "notFinal": "",
	      "final": "This feedback will appear if you answered the question correctly."
	    }
	    },
	    "_buttons": {
	    "_submit": {
	      "buttonText": "Submit",
	      "ariaLabel": "Select here to submit your answer."
	    },
	    "_reset": {
	      "buttonText": "Reset",
	      "ariaLabel": ""
	    },
	    "_showCorrectAnswer": {
	      "buttonText": "Correct Answer",
	      "ariaLabel": ""
	    },
	    "_hideCorrectAnswer": {
	      "buttonText": "My Answer",
	      "ariaLabel": ""
	    },
	    "_showFeedback": {
	      "buttonText": "Show feedback",
	      "ariaLabel": ""
	    },
	    "remainingAttemptsText": "attempts remaining",
	    "remainingAttemptText": "final attempt"
	    },
	    "_pageLevelProgress": {
	    "_isEnabled": true
	    }
	},
	{
	    "_id":"c-33",
	    "_parentId":"b-33",
	    "_type":"component",
	    "_component":"popup-body",
	    "_classes":"",
	    "_layout":"full",
	    "title":"Popup Body Component",
	    "displayTitle":"Popup Body Component",
	    "body":"<ul class='flex-container'style='padding:10px;'><li style = 'background-color:tomato; padding:30px;'><div style='background-color:white; padding:10px;'><h2>item 1</h2></div></li><li class='popups' id=1   style = 'background-color:grey; padding:30px;'><h2>item 2</h2></li><li style = 'background-color:blue; padding:30px;'><h2>item 3</h2></li><li style = 'background-color:yellow; padding:30px;'><h2>item 4</h2></li></ul>",
	    "popups":[{"title":"Discuss Hot Topics","body":"Share what’s on your mind, whether it’s thoughts on current events or your reaction to something that has happened in your life."}],
	    "instruction":"",
	    "_pageLevelProgress": {
	        "_isEnabled": true
	    }
	},
	{
	    "_id":"c-34",
	    "_parentId":"b-34",
	    "_type":"component",
	    "_component":"prettify",
	    "_classes":"",
	    "_layout":"full",
	    "title":"Prettify Component",
	    "displayTitle":"Prettify Component",
	    "body":"<pre class='prettyprint prettyprinted'><code><span class='com'>&lt;!-- Facebook Pixel Code --&gt;</span><span class='pln'></span><span class='tag'>&lt;script&gt;</span><span class='pln'></span><span class='pun'>!</span><span class='kwd'>function</span><span class='pun'>(</span><span class='pln'>f</span><span class='pun'>,</span><span class='pln'>b</span><span class='pun'>,</span><span class='pln'>e</span><span class='pun'>,</span><span class='pln'>v</span><span class='pun'>,</span><span class='pln'>n</span><span class='pun'>,</span><span class='pln'>t</span><span class='pun'>,</span><span class='pln'>s</span><span class='pun'>){</span><span class='kwd'>if</span><span class='pun'>(</span><span class='pln'>f</span><span class='pun'>.</span><span class='pln'>fbq</span><span class='pun'>)</span><span class='kwd'>return</span><span class='pun'>;</span><span class='pln'>n</span><span class='pun'>=</span><span class='pln'>f</span><span class='pun'>.</span><span class='pln'>fbq</span><span class='pun'>=</span><span class='kwd'>function</span><span class='pun'>(){</span><span class='pln'>n</span><span class='pun'>.</span><span class='pln'>callMethod</span><span class='pun'>?</span><span class='pln'>n</span><span class='pun'>.</span><span class='pln'>callMethod</span><span class='pun'>.</span><span class='pln'>apply</span><span class='pun'>(</span><span class='pln'>n</span><span class='pun'>,</span><span class='pln'>arguments</span><span class='pun'>):</span><span class='pln'>n</span><span class='pun'>.</span><span class='pln'>queue</span><span class='pun'>.</span><span class='pln'>push</span><span class='pun'>(</span><span class='pln'>arguments</span><span class='pun'>)};</span><span class='kwd'>if</span><span class='pun'>(!</span><span class='pln'>f</span><span class='pun'>.</span><span class='pln'>_fbq</span><span class='pun'>)</span><span class='pln'>f</span><span class='pun'>.</span><span class='pln'>_fbq</span><span class='pun'>=</span><span class='pln'>n</span><span class='pun'>;</span><span class='pln'>n</span><span class='pun'>.</span><span class='pln'>push</span><span class='pun'>=</span><span class='pln'>n</span><span class='pun'>;</span><span class='pln'>n</span><span class='pun'>.</span><span class='pln'>loaded</span><span class='pun'>=!</span><span class='lit'>0</span><span class='pun'>;</span><span class='pln'>n</span><span class='pun'>.</span><span class='pln'>version</span><span class='pun'>=</span><span class='str'>'2.0'</span><span class='pun'>;</span><span class='pln'>n</span><span class='pun'>.</span><span class='pln'>queue</span><span class='pun'>=[];</span><span class='pln'>t</span><span class='pun'>=</span><span class='pln'>b</span><span class='pun'>.</span><span class='pln'>createElement</span><span class='pun'>(</span><span class='pln'>e</span><span class='pun'>);</span><span class='pln'>t</span><span class='pun'>.</span><span class='pln'>async</span><span class='pun'>=!</span><span class='lit'>0</span><span class='pun'>;</span><span class='pln'>t</span><span class='pun'>.</span><span class='pln'>src</span><span class='pun'>=</span><span class='pln'>v</span><span class='pun'>;</span><span class='pln'>s</span><span class='pun'>=</span><span class='pln'>b</span><span class='pun'>.</span><span class='pln'>getElementsByTagName</span><span class='pun'>(</span><span class='pln'>e</span><span class='pun'>)[</span><span class='lit'>0</span><span class='pun'>];</span><span class='pln'>s</span><span class='pun'>.</span><span class='pln'>parentNode</span><span class='pun'>.</span><span class='pln'>insertBefore</span><span class='pun'>(</span><span class='pln'>t</span><span class='pun'>,</span><span class='pln'>s</span><span class='pun'>)}(</span><span class='pln'>window</span><span class='pun'>,</span><span class='pln'>document</span><span class='pun'>,</span><span class='str'>'script'</span><span class='pun'>,</span><span class='str'>'//connect.facebook.net/en_US/fbevents.js'</span><span class='pun'>);</span><span class='pln'></span><span class='com'>// Insert Your Facebook Pixel ID below. </span><span class='pln'>fbq</span><span class='pun'>(</span><span class='str'>'init'</span><span class='pun'>,</span><span class='pln'> </span><span class='str'>'&lt;FB_PIXEL_ID&gt;'</span><span class='pun'>);</span><span class='pln'>fbq</span><span class='pun'>(</span><span class='str'>'track'</span><span class='pun'>,</span><span class='pln'> </span><span class='str'>'PageView'</span><span class='pun'>);</span><span class='pln'>fbq</span><span class='pun'>(</span><span class='str'>'track'</span><span class='pun'>,</span><span class='pln'> </span><span class='str'>'Search'</span><span class='pun'>,</span><span class='pln'> </span><span class='pun'>{</span><span class='pln'> search_string</span><span class='pun'>:</span><span class='pln'> </span><span class='str'>'leather sandals'</span><span class='pun'>,</span><span class='pln'>content_ids</span><span class='pun'>:</span><span class='pln'> </span><span class='pun'>[</span><span class='str'>'1234'</span><span class='pun'>,</span><span class='pln'> </span><span class='str'>'2424'</span><span class='pun'>,</span><span class='pln'> </span><span class='str'>'1318'</span><span class='pun'>,</span><span class='pln'> </span><span class='str'>'6832'</span><span class='pun'>],</span><span class='pln'> </span><span class='com'>// top 5-10 search results</span><span class='pln'>content_type</span><span class='pun'>:</span><span class='pln'> </span><span class='str'>'product'</span><span class='pln'></span><span class='pun'>});</span><span class='pln'></span><span class='tag'>&lt;/script&gt;</span><span class='pln'></span><span class='com'>&lt;!-- End Facebook Pixel Code --&gt;</span></code></pre>",
	    "instruction":"",
	    "_pageLevelProgress": {
	        "_isEnabled": true
	    }
	},
	{
	    "_id":"c-36",
	    "_parentId":"b-36",
	    "_type":"component",
	    "_component":"remotetext",
	    "_classes":"",
	    "_layout":"full",
	    "title":"Remote Text Component",
	    "displayTitle":"Remote Text Component",
	    "body":"This component you're reading is a text component. All components take this form of a title and body - except a blank component. However it's important to realise that title and body attributes are not needed. <br><br>Take for instance the media component opposite or below on a smaller device - has no body attribute. Instead of the HTML being rendered Adapt simply doesn't render it. The title attribute is simply a break tag to push the media component level with the opposite component.",
	    "instruction":""
	},
	{
		"_id":"c-38",
		"_parentId":"b-38",
		"_type":"component",
		"_component":"survey-checkbox",
		"_classes":"",
		"_layout":"full",
		"title":"Custom Checkbox Component",
		"displayTitle":"Custom Checkbox Component",
		"body":"Checkbox body",
		"instruction":"Checkbox instructions",
		"userSelection":["foo","baz"],
		"_items": [
			{
				"label":"",
				"value":"foo",
				"_graphic": {
					"alt": "",
					"title": "",
					"src": "course/en/images/tags_offline.png"
				}
			},
			{
				"label":"",
				"value":"bar",
				"_graphic": {
					"alt": "",
					"title": "",
					"src": "course/en/images/tags_offline.png"
				}
			},
			{
				"label":"",
				"value":"baz",
				"_graphic": {
					"alt": "",
					"title": "",
					"src": "course/en/images/tags_offline.png"
				}
			}
		],
		"_pageLevelProgress": {
			"_isEnabled": false
		}
	},
	{
		"_id":"c-39",
		"_parentId":"b-39",
		"_type":"component",
		"_component":"survey-feedback",
		"_classes":"",
		"_layout":"full",
		"title":"Survey Feedback Component",
		"displayTitle":"Survey Feedback Component",
		"body":"",
		"instruction":"",
		"feedbackBody":"Text before listing feedback; only show when feedback exist.",
		"feedbackPostBody":"Text after listing feedback; only show when feedback exist.",
		"prefix":"&bull;&nbsp;",
		"suffix":"",
		"limitFeedback":false,
		"feedback":[
			{
				"resultsFor":["c-1030","c-2170"],
				"condition":"is",
				"value":"No",
				"response":"Sorry, That is not correct."
			},
			{
				"resultsFor":["c-1030"],
				"condition":"is",
				"value":"Yes",
				"response":"Correct."
			},
			{
				"resultsFor":["c-2170"],
				"condition":"is not",
				"value":"No",
				"response":"Great! Let's look at other possibilities."
			},
			{
				"resultsFor":["c-4060"],
				"condition":"contains",
				"value":"not interested",
				"response":"There's always another time."
			}
		],
		"_pageLevelProgress": {
			"_isEnabled": false
		}
	},
	{
	    "_id":"c-40",
	    "_parentId":"b-40",
	    "_type":"component",
	    "_component":"survey-radio",
	    "_classes":"",
	    "_layout":"full",
	    "title":"Custom Radio Component",
	    "displayTitle":"Custom Radio Component",
	    "body":"Radio body",
	    "instruction":"Radio instructions",
	    "userSelection":"",
	    "_dynamicBlocks": {
	        "foo": ["b-218","b-219","b-370","b-371"],
	        "bar": ["b-220","b-221","b-372","b-373"],
	        "baz": ["b-222","b-223","b-374","b-375"]
	    },
	    "_items": [
	        {
	            "label":"",
	            "value":"foo",
	            "_graphic": {
	                "alt": "",
	                "title": "",
	                "src": ""
	            }
	        },
	        {
	            "label":"",
	            "value":"bar",
	            "_graphic": {
	                "alt": "",
	                "title": "",
	                "src": ""
	            }
	        },
	        {
	            "label":"",
	            "value":"baz",
	            "_graphic": {
	                "alt": "",
	                "title": "",
	                "src": ""
	            }
	        }
	    ],
	    "_pageLevelProgress": {
	        "_isEnabled": false
	    }
	},
	{
	    "_id":"c-41",
	    "_parentId":"b-41",
	    "_type":"component",
	    "_component":"survey-results",
	    "_classes":"",
	    "_layout":"full",
	    "title":"Survey Results Component",
	    "displayTitle":"Survey Results Component",
	    "body":"",
	    "instruction":"",
	    "resultsBody":"Text before listing results; only shows when results exist.",
	    "resultsPostBody":"Text after listing results; only shows when results exist.",
	    "resultsFor":"component",
	    "componentIds":["c-1030","c-1040"],
	    "showQuestion":true,
	    "prefix":"&bull;&nbsp;",
	    "suffix":"",
	    "_pageLevelProgress": {
	        "_isEnabled": false
	    }
	},
	{
	    "_id":"c-42",
	    "_parentId":"b-42",
	    "_type":"component",
	    "_component":"survey-textbox",
	    "_classes":"",
	    "_layout":"full",
	    "title":"Custom Textbox Component",
	    "displayTitle":"Custom Textbox Component",
	    "body":"Textbox body",
	    "instruction":"Textbox instructions",
	    "userSelection":"",
	    "prefix":"",
	    "suffix":"",
	    "_pageLevelProgress": {
	        "_isEnabled": false
	    }
	},
	{
	    "_id":"c-43",
	    "_parentId":"b-43",
	    "_type":"component",
	    "_component":"text",
	    "_classes":"",
	    "_layout":"full",
	    "title":"Table",
	    "displayTitle":"Table",
	    "body":"",
	    "instruction":"",
	    "_pageLevelProgress": {
	        "_isEnabled": true
	    }
	},
	{	"_id": "c-45",
		"_parentId": "b-45",
		"_type":"component",
		"_component":"sortable",
		"_classes":"sortableComponent",
		"_layout":"center",
		"title":"Sortable Component",
		"displayTitle":"Sortable Component",
		"body":"Sortable Component",
		"instruction":"Sortable Component",
		"_isRandom": true,
		"_selectable": 0,
		"_canShowMarking" : false,
		"_canShowFeedback": "true",
		"_itemOrder" : "",
		"_items": [
			{
				"text": "1917"
			},
			{
				"text": "1888"
			},
			{
				"text": "1953"
			},
			{
				"text": "1977"
			}
		],
		"_buttons": {
			"_submit": "Submit",
			"_reset": "Reset"
		},
		"_pageLevelProgress": {
			"_isEnabled": true
		},
		"_feedback": {
			"correct": "Correct answer feedback.<br><br>You put all the answers in the correct order.",
			"_incorrect": {
	 		 "notFinal": "",
	 		 "final": "Incorrect answer feedback.<br><br>This feedback will appear if you answered the question incorrectly."
	 	   },
	 	   "_partlyCorrect": {
	 		 "notFinal": "",
	 		 "final": "Partly correct answer feedback.<br><br> This feedback will appear if you answered the question correctly."
	 	   }
		}
	},
	{
	    "_id":"c-46",
	    "_parentId":"b-46",
	    "_type":"component",
	    "_component":"gmcq",
	    "_classes":"",
	    "_layout":"full",
	    "_attempts":1,
	    "_shouldDisplayAttempts": false,
	    "_questionWeight":1,
	    "_isRandom":false,
	    "_selectable":1,
	    "_canShowModelAnswer": true,
	    "_canShowMarking": true,
	    "_recordInteraction":true,
	    "_columns": 3,
	    "title": "GMCQ",
	    "displayTitle": "GMCQ",
	    "body": "Which of the following options would you consider to be correct?",
	    "instruction": "",
	    "_items": [
	        {
	            "text": "This is option 1.",
	            "_shouldBeSelected":true,
	            "_graphic": {
	                "alt": "Alt text for option 1",
	                "large": "",
	                "small": ""
	            }
	        },
	        {
	            "text": "This is option 2.",
	            "_shouldBeSelected":false,
	            "_graphic": {
	                "alt": "Alt text for option 2",
	                "large": "",
	                "small": ""
	            }
	        }
	    ],
	    "_feedback":{
	        "correct":"Congratulations, this is the correct feedback.",
	        "_incorrect": {
	            "notFinal": "",
	            "final": "Unfortunately this is the incorrect feedback."
	        },
	        "_partlyCorrect": {
	            "notFinal": "",
	            "final": "This is the partly correct feedback."
	        }
	    },
	    "_buttons": {
	      "_submit": {
	        "buttonText": "Submit",
	        "ariaLabel": "Select here to submit your answer."
	      },
	      "_reset": {
	        "buttonText": "Reset",
	        "ariaLabel": ""
	      },
	      "_showCorrectAnswer": {
	        "buttonText": "Correct Answer",
	        "ariaLabel": ""
	      },
	      "_hideCorrectAnswer": {
	        "buttonText": "My Answer",
	        "ariaLabel": ""
	      },
	      "_showFeedback": {
	        "buttonText": "Show feedback",
	        "ariaLabel": ""
	      },
	      "remainingAttemptsText": "attempts remaining",
	      "remainingAttemptText": "final attempt"
	    }
	},
	{
	    "_id":"c-50",
	    "_parentId":"b-50",
	    "_type":"component",
	    "_component":"barGraph",
	    "_classes":"",
	    "title":"Bargraph",
	    "displayTitle":"Bargraph Component",
	    "body":"This component you're reading is a bargraph component.",
	    "instruction":"",
	    "_items": [
	        {
	            "leftGraphHeight":"80%",
	            "leftText":"left graph",
	            "leftColor":"#207bbb",
	            "rightGraphHeight":"40%",
	            "rightText":"right graph",
	            "rightColor":"#d02727",
	            "border":"2px solid #000",
	            "headline":"Graph Headline",
	            "height":"325px"
	        },
	        {
	            "leftGraphHeight":"20%",
	            "leftText":"left graph 2",
	            "leftColor":"#207bbb",
	            "rightGraphHeight":"70%",
	            "rightText":"right graph 2",
	            "rightColor":"#d02727",
	            "border":"2px solid #000",
	            "headline":"Graph Headline 2",
	            "height":"325px"
	         }
	     ]
	},
	{
	    "_id":"c-51",
	    "_parentId":"b-51",
	    "_type":"component",
	    "_component":"textOverlay",
	    "_classes":"",
	    "_layout":"full",
	    "title":"textOverlay",
	    "displayTitle":"text overlay",
	    "body":"text overlay",
	    "instruction":"",
	    "text":"This is text over an image! Here's more text so it wraps...",
	    "fontSize":"4vw",
	    "lineHeight":"",
	    "fontColor":"#ffffff",
	    "dropShadow":"2px 2px 2px rgba(0,0,0,.6)",
	    "_graphic": {
	        "alt": "alt text",
	        "large": "/course/en/images/Untitled-1.jpg",
	        "small": "/course/en/images/Untitled-1.jpg",
	        "attribution":"Copyright © 2017"
	    }
	}
]
