{
    "_id": "c-7",
    "_parentId": "b-7",
    "_type": "component",
    "_component": "video",
    "_classes": "",
    "_layout": "",
    "title": "Where do you want to drive conversion? ",
    "displayTitle": "Where do you want to drive conversion? ",
    "body": "Check out the first two experiences that drive people to complete a purchase on your website and app, respectively. In the last experience, we show how you can create a conversion path using Messenger.  ",
    "instruction": "",
    "_items": [
        {
            "videoSrc": "course/en/video/web-conversion.mp4",
            "videoText": "Drive your ad traffic to take action on your website.",
            "poster": "course/en/images/placeholder.png",
            "isControls": "false",
            "loop": "true",
            "muteBtn": "true",
            "fontSize": "1vmin",
            "fontWeight": "",
            "fontColor": "#207bbb",
            "isMuted": "true",
            "autoplay": "true"
        },
        {
            "videoSrc": "course/en/video/web-conversion.mp4",
            "videoText": "Drive your ad traffic to take action on your website.",
            "poster": "course/en/images/placeholder.png",
            "isControls": "false",
            "loop": "true",
            "muteBtn": "true",
            "fontSize": "1vmin",
            "fontWeight": "",
            "fontColor": "#207bbb",
            "isMuted": "true",
            "autoplay": "true"
        },
        {
            "videoSrc": "course/en/video/web-conversion.mp4",
            "videoText": "Drive your ad traffic to take action on your website.",
            "poster": "course/en/images/placeholder.png",
            "isControls": "false",
            "loop": "true",
            "muteBtn": "true",
            "fontSize": "1vmin",
            "fontWeight": "",
            "fontColor": "#207bbb",
            "isMuted": "true",
            "autoplay": "true"
        }
    ]
}
