{
    "_id":"c-58",
    "_parentId":"b-58",
    "_type":"component",
    "_component":"branchChart",
    "_classes":"",
    "title":"2 columns",
    "displayTitle":"Branch chart component",
    "body":"Branch chart component",
    "instruction":"",
    "componentWidth": "100%",
    "verticalPadding": "",
    "align": "center",
    "fontSizeText":"2.75vmin",
    "fontSizeCaption":"2vmin",
    "fontColorText":"#ffffff",
    "fontColorCaption":"#000",
    "borderColor": "red",
    "backgroundColor": "#4267b2",
    "alternateBgColorRows": "true",
    "topText": "Top text",
    "midLeftText": "Mid left text now it's longer to test height resize",
    "midRightText": "Mid right text",
    "bottomLeftOuterText": "",
    "bottomLeftInnerText": "",
    "bottomRightOuterText": "Bottom right outer Text, now it's longer to test height resize",
    "bottomRightInnerText": "Bottom right inner Text",
    "lastRowLeftOuterText": "",
    "lastRowLeftInnerText": "",
    "lastRowRightOuterText": "Bottom right outer Text",
    "lastRowRightInnerText": "Bottom right inner Text",
    "topCaption": "FB Population",
    "midCaption": "FB Population",
    "bottomCaption": "FB Population",
    "lastRowCaption": "FB Population",
    "isSubHeading": "",
    "_feedback": {
        "topFb": "",
        "midLeftFb": "mid Left Feedback",
        "midRightFb": "mid Right Feedback",
        "bottomLeftOuterFb": "bottom Left outer Feedback",
        "bottomLeftInnerFb": "bottom Left Inner Feedback",
        "bottomRightInnerFb": "bottom Right Inner Feedback",
        "bottomRightOuterFb": "bottom Right Outer Feedback",
        "lastRowLeftOuterFb": "bottom Left outer Feedback",
        "lastRowLeftInnerFb": "bottom Left Inner Feedback",
        "lastRowRightInnerFb": "bottom Right Inner Feedback",
        "lastRowRightOuterFb": "bottom Right Outer Feedback"
    },
    "_title": {
        "topFb": "Top title",
        "midLeftFb": "mid Left Title",
        "midRightFb": "mid Right Title",
        "bottomLeftOuterFb": "bottom Left outer Title",
        "bottomLeftInnerFb": "bottom Left Inner Title",
        "bottomRightInnerFb": "bottom Right Inner Title",
        "bottomRightOuterFb": "bottom Right Outer Title",
        "lastRowLeftOuterFb": "bottom Left outer Title",
        "lastRowLeftInnerFb": "bottom Left Inner Title",
        "lastRowRightInnerFb": "bottom Right Inner Title",
        "lastRowRightOuterFb": "bottom Right Outer Title"
    }
}
