{
    "_id":"c-04",
    "_parentId":"b-04",
    "_type":"component",
    "_delay":"800",
    "_color":"#4267B2",
    "_classes":"",
    "_component":"arrowbox",
    "_layout":"full",
    "title":"Arrowbox",
    "displayTitle":"Arrowbox Component",
    "body":"<div style='color:#ffffff;'><b>Vestibulum tincidunt erat vitae nisl dapibus, bibendum cursus eros porttitor. Vestibulum consequat pellentesque felis. Nulla magna neque, suscipit quis urna sit amet, tempus feugiat velit. Sed quis risus leo. Donec in lobortis est. Morbi auctor massa eget turpis ornare gravida. Cras fringilla bibendum lobortis. Sed iaculis lobortis augue vitae rhoncus. Vestibulum fringilla justo non massa efficitur, in elementum diam vehicula. Proin</b><a href='#'><div style='color:#ffffff;text-decoration: underline;'>link here</div></a></div>",
    "_popupBody":"popup body",
    "_popupTitle":"popup title",
    "instruction":"",
    "_pageLevelProgress": {
        "_isEnabled": true
    }
}
