{
	"_id": "c-81",
	"_parentId": "b-61",
	"_type":"component",
	"_component":"dragDrop",
	"_classes":"dragDropComponent",
	"_layout":"center",
	"title":"drag drop Component",
	"displayTitle":"",
	"body":"A showcase for our new dragDrop",
	"instruction":"Drop it like its hot!",
	"_isRandom": true,
	"_selectable": 0,
	"_canShowMarking" : false,
	"_itemOrder" : "",
	"_items": [
		{
			"text": "1917"
		},
		{
			"text": "1888"
		},
		{
			"text": "1953"
		},
		{
			"text": "1977"
		}
	],
	"_buttons": {
		"_submit": "Submit",
		"_reset": "Reset"
	},
	"_pageLevelProgress": {
		"_isEnabled": true
	},
	"_feedback": {
		"correct": "Correct answer feedback.<br><br>You put all the answers in the correct order.",
		"_partlyCorrect": {
			"final": "Partially correct answer feedback.<br><br>That’s partially correct."
		},
		"_incorrect": {
			"final": "Incorrect answer feedback.<br><br>Sorry, that’s not right."
		}
	}
}
