{
    "_id": "c-7",
    "_parentId": "b-3",
    "_type": "component",
    "_component": "flipCard",
    "_classes": "",
    "_layout": "full",
    "title": "Flip Card",
    "displayTitle": "Conversion ad ingredients",
    "body": "Besides the usual inputs used to create Facebook ads, you'll need to line up these additional ingredients for creating a conversion ad: <br><br> <ol><li>Conversion event</li><li> Event source</li><li> Facebook pixel, app events via Facebook SDK integration, or both. </li></ol><br><center> Click on each card to learn more.</center>",
    "instruction": "",
    "_items": [
        {
            "frontImageSrc": "course/en/images/ch2/FBB_flipcard02.png",
            "frontHeading": "1. Event source",
            "fontSizeHeading": "16px",
            "fontSizeText": "14px",
            "frontImgTop": "24px",
            "frontImgbottom": "",
            "frontImgleft": "",
            "frontImgright": "",
            "frontImgWidth": "30%",
            "frontImgHeight": "",
            "frontImgOpacity" : "1",
            "padding": "12px 24px",
            "fontColor": "#ffffff",
            "frontListOfOptions": [
                "This is where you want to drive conversion. Your event source options for Facebook conversion ads are: <ul><li>Website</li><li>Mobile app</li><li>Messenger experience</li></ul>"
            ],
            "frontFooter": "some footer text",
            "frontFooterColor": "#808080",
            "frontFooterPadding": "12px",
            "backHeading": "xxx",
            "backListOfOptions": [
                "Avail technology no matter how expensive it be, to reduce greenhouse releases.",
                "Persuade the citizens of a nation to get together and work towards a development program.",
                "Follow rules and regulations set by the government to avoid excessive greenhouse emissions."
            ],
            "textShadow":""
        },
        {
            "frontImageSrc": "course/en/images/ch2/FBB_flipcard01.png",
            "frontHeading": "2. Conversion event",
            "fontSizeHeading": "16px",
            "fontSizeText": "14px",
            "frontImgTop": "24px",
            "frontImgbottom": "",
            "frontImgleft": "",
            "frontImgright": "",
            "frontImgWidth": "30%",
            "frontImgHeight": "",
            "frontImgOpacity" : "1",
            "padding": "12px 24px",
            "fontColor": "#ffffff",
            "frontListOfOptions": [
                "The action you want people to take after seeing or clicking your ad is called a <i>conversion event</i>. For conversion events occurring in mobile apps, we call them <i>app events</i>."
            ],
            "frontFooter": "some footer text",
            "frontFooterColor": "#808080",
            "frontFooterPadding": "12px",
            "backHeading": "Example",
            "backListOfOptions": [
                "Let’s say you sell gourmet cookies and you want to maximize your cookie sales. Your conversion event would be  “purchase.”"
            ],
            "textShadow":""
        },
        {
            "frontImageSrc": "course/en/images/ch2/FBB_flipcard03.png",
            "frontHeading": "3. Facebook pixel",
            "fontSizeHeading": "16px",
            "fontSizeText": "14px",
            "frontImgTop": "24px",
            "frontImgbottom": "",
            "frontImgleft": "",
            "frontImgright": "",
            "frontImgWidth": "30%",
            "frontImgHeight": "",
            "frontImgOpacity" : "1",
            "padding": "12px 24px",
            "fontColor": "#ffffff",
            "frontListOfOptions": [
                "Conversion ads work by Facebook finding people in your specified audience who are likely to complete your conversion event. How does Facebook know who is most likely to convert? It learns this by analyzing the people who have converted. Facebook can learn this from the <i>Facebook pixel</i>.", "The pixel is a piece of code that you add to your website to capture information about your conversion events that are anallyzed by Facebook to find more people like those who have converted.</li> "
            ],
            "frontFooter": "some footer text",
            "frontFooterColor": "#808080",
            "frontFooterPadding": "12px",
            "backHeading": "Example<br>If you sell gourmet cookies, for instance, you’ll probably filter for people who have an interest in bakery, gourmet food, and other attributes. Facebook will find people in this audience who are most likely to purchase based on its analysis of the people who have already purchased your cookies.",
            "backListOfOptions": [
                " ",
                "Persuade the citizens of a nation to get together and work towards a development program.",
                "Follow rules and regulations set by the government to avoid excessive greenhouse emissions."
            ],
            "textShadow":""
        },
        {
            "frontImageSrc": "course/en/images/ch2/FBB_flipcard04.png",
            "frontHeading": "4. App events via Facebook SDK",
            "fontSizeHeading": "16px",
            "fontSizeText": "14px",
            "frontImgTop": "24px",
            "frontImgbottom": "",
            "frontImgleft": "",
            "frontImgright": "",
            "frontImgWidth": "30%",
            "frontImgHeight": "",
            "frontImgOpacity" : "1",
            "padding": "12px 24px",
            "fontColor": "#ffffff",
            "frontListOfOptions": [
                "This is where you want to drive conversion. Your event source options for Facebook conversion ads are: <ul><li>Website</li></ul><li>Mobile app</li><li>Messenger experience</li> Got a product catalog? Click this card!"
            ],
            "frontFooter": "some footer text",
            "frontFooterColor": "#808080",
            "frontFooterPadding": "12px",
            "backImageSrc": "",
            "backHeading": "To overcome Global Climate Change challenges, it is essential to:",
            "backListOfOptions": [
                "Avail technology no matter how expensive it be, to reduce greenhouse releases.",
                "Persuade the citizens of a nation to get together and work towards a development program.",
                "Follow rules and regulations set by the government to avoid excessive greenhouse emissions."
            ],
            "textShadow":""
        }
    ],
    "_flipType": "singleFlip",
    "_flipTime": 400
}
