[
    {
        "_id": "c-340",
        "_parentId": "b-340",
        "_type": "component",
        "_component": "animate-text-blocks",
        "_classes": "",
        "_layout": "full",
        "title": "How to reach the right people on Instagram",
        "displayTitle": "How to reach the right people on Instagram",
        "body": "",
        "instruction": "",
        "backgroundColor": "#d0dbfa,#d0dbfa,#d0dbfa,#d0dbfa,#d0dbfa,#d0dbfa",
        "_animationOnView": "slide,fade,stagger",
        "_cornerRadius": "4px",
        "_spacing": "10px",
        "_pageLevelProgress": {
            "_isEnabled": true
        },
        "_items": [
            {
                "graphic": "course/en/images/common/comment-icon.png",
                "item_title": "Lorem ipsum dolor sit amet.",
                "body": "Nam vel turpis maximus, ornare elit vitae, aliquam justo. ",
                "popup_body": "Hi there",
                "background_color": "#666666"
            },
            {
                "graphic": "course/en/images/common/heart-icon.png",
                "item_title": "Fusce mi enim, semper et cursus id.",
                "body": "Aenean commodo, turpis ac faucibus varius, nisl erat lacinia mauris."
            },
            {
                "graphic": "course/en/images/common/frame-icon.png",
                "item_title": "Nam consectetur iaculis magna.",
                "body": "Ut dignissim ex ut elit egestas, eget sagittis neque dignissim."
            },
            {
                "item_title": "Nullam pharetra gravida.",
                "body": "Maecenas auctor dictum placerat. Duis pulvinar augue at porta tristique."
            }
        ]
    },
