{
    "_id":"c-00",
    "_parentId":"b-05",
    "_type":"component",
    "_component":"survey-radio",
    "_classes":"",
    "_layout":"left",
    "title":"Custom Radio Component",
    "displayTitle":"Custom Radio Component",
    "body":"Radio body",
    "instruction":"Radio instructions",
    "userSelection":"",
    "_dynamicBlocks": {
        "foo": ["b-218","b-219","b-370","b-371"],
        "bar": ["b-220","b-221","b-372","b-373"],
        "baz": ["b-222","b-223","b-374","b-375"]
    },
    "_items": [
        {
            "label":"",
            "value":"foo",
            "_graphic": {
                "alt": "",
                "title": "",
                "src": "course/en/images/lucky.jpg"
            }
        },
        {
            "label":"",
            "value":"bar",
            "_graphic": {
                "alt": "",
                "title": "",
                "src": "course/en/images/lucky.jpg"
            }
        },
        {
            "label":"",
            "value":"baz",
            "_graphic": {
                "alt": "",
                "title": "",
                "src": "course/en/images/lucky.jpg"
            }
        }
    ],
    "_pageLevelProgress": {
        "_isEnabled": false
    }
}