<?xml version="1.0" encoding="utf-8"?>
<!-- Generator: Adobe Illustrator 18.0.0, SVG Export Plug-In . SVG Version: 6.00 Build 0)  -->
<!DOCTYPE svg PUBLIC "-//W3C//DTD SVG 1.1//EN" "http://www.w3.org/Graphics/SVG/1.1/DTD/svg11.dtd">
<svg version="1.1" id="Capa_1" xmlns="http://www.w3.org/2000/svg" xmlns:xlink="http://www.w3.org/1999/xlink" x="0px" y="0px"
	 viewBox="0 0 459 459" enable-background="new 0 0 459 459" xml:space="preserve">
<g>
	<g id="reply">
		<path fill="#FFFFFF" stroke="#FFFFFF" stroke-miterlimit="10" d="M178.5,140.2v-102L0,216.8l178.5,178.5V290.7
			c127.5,0,216.8,40.8,280.5,130C433.5,293.2,357,165.8,178.5,140.2z"/>
	</g>
</g>
</svg>
