<?xml version="1.0" encoding="utf-8"?>
<!-- Generator: Adobe Illustrator 18.0.0, SVG Export Plug-In . SVG Version: 6.00 Build 0)  -->
<!DOCTYPE svg PUBLIC "-//W3C//DTD SVG 1.1//EN" "http://www.w3.org/Graphics/SVG/1.1/DTD/svg11.dtd">
<svg version="1.1" id="Capa_1" xmlns="http://www.w3.org/2000/svg" xmlns:xlink="http://www.w3.org/1999/xlink" x="0px" y="0px"
	 viewBox="0 0 612 792" enable-background="new 0 0 612 792" xml:space="preserve">
<g>
	<path fill="#2C4376" d="M298.7,208.2l26.6,43l-48.1,35.2l-27.4-44.2L211.2,266l-23.9-38.7l38.7-23.9l23.9,38.6L298.7,208.2z
		 M301.1,325l-23.9-38.6l-38.7,23.9l23.9,38.6L301.1,325z M522.5,241.3l-4.3,9.2c-7.7,42.3-33.9,70.6-53.4,82.7
		c-42.2,26.1-85.8,10.4-87.7,9.8c-28.3-6-53.6-2.6-74.5,10.4c-38.7,23.9-49.7,73-49.8,73.5l-2.6,12l153.2,247.8L378.7,702
		L105.8,260.8c-5.2,2.1-11.4,0.4-14.4-4.6c-3.5-5.6-1.7-13,3.9-16.5l20.5-12.7c5.6-3.5,13-1.7,16.4,3.9c2.9,4.7,2,10.5-1.7,14.3
		l7.4,11.9l0.2-0.4c16-38.9,36.4-66.2,60.6-81.1c43.9-27.1,84-4.6,85.7-3.6c34.3,20,58.7,13.5,73.2,4.6c6.2-3.8,9.4-7.6,9.4-7.6
		c33.9-29.7,47.5-63.4,53.5-75.7s16.6,11.3,16.6,11.3L522.5,241.3z M415.5,125.8l6.2,10l15.2-11.8l-12.1-19.6
		C422.2,109.3,420,118.3,415.5,125.8z M249.6,403.5l-6.9,4.3l3.3,5.2C246.9,410.3,248.2,406.9,249.6,403.5z M375.3,332.1l-5.3-8.6
		l-5.2,7C368.2,331,371.8,331.4,375.3,332.1z M412.8,306.2l-20.9-33.8l42.4-29.9l-24-38.5L368,233.9l-24.8-40.1
		c-5,1.2-10.5,1.9-16.6,1.8l-27.9,12.5l-15.3-24.7c-1.4-0.8-2.8-1.5-4.3-2.3c-0.5-0.3-4.2-2.3-10.2-4.3l-43,26.6l-14.2-22.9
		c-2.5,1.2-5,2.5-7.5,4.1c-9.9,6.1-19.1,14.7-27.6,25.4l10.7,17.3l-33.9,20.9c-1.5,3.3-3,6.5-4.5,10l20.9,33.3l41.5-25.6l27.4,44.2
		l-41.1,25.5l24.2,38.4l40.8-25.3l10.4,16.7c6.7-7.8,14.7-15.2,24.4-21.2c3.9-2.4,8-4.3,12.1-6.2l-8.2-13.2l48.3-34.8l-24.1-39
		l42.7-17.2l23.9,38.6l-42.4,17.7l19.8,32L412.8,306.2z M507.1,236.4l-0.6-1l-14.8,13.5L471,215.6l15.6-12.1l-25.8-41.2L447,176.9
		l-25.4-41.1l-22.4,13.8c-3.9,5.2-8.3,10.3-13,15.3l24,38.9l36.8-27l23.9,38.7l-36.7,27l20.9,33.8L413.9,308l17,27.5
		c9.2-1.9,18.9-5.4,28.4-11.3c6.1-3.8,11.7-8.3,17-13.6l-21.2-34.3l36.4-27.5l12.1,19.6L507.1,236.4z"/>
</g>
</svg>
