

  {
    "_id":"c-1351",
    "_parentId":"b-50",
    "_type":"component",
    "_component":"mobile-animation",
    "_classes":"",
    "_layout":"full",
    "_animateOn":"inview",
    "title":"Landing pages",
    "displayTitle":"Landing pages",
    "animationName":"mobile_animation",
    "body":"Landing pages are the sites that people are redirected to when they click on your ad. Any landing page must clearly represent the company, product, service, or brand that’s being advertised, in addition to following the above content guidelines.<br><br>Click on each of the icons below to learn more.<div style='text-align:center;'></div><div id='mob_ani'></div>",
    "_resources": {
        "phone":"course/en/animations/mob_ani/phone4.png",
        "line":"course/en/animations/mob_ani/line.png"
    },
    "_items": [
      {
        "icon": "course/en/animations/mob_ani/1_icon.png",
        "text": "Facebook Destinations",
        "popup": "You can use a Facebook page as your ad’s landing page, such as your business Page or a Group. But you can’t direct people to the Facebook homepage (www.facebook.com).<br><br>If you direct people to your Page, we’ll review the Page’s content to make sure it follows our content guidelines. If you direct people to a Group, it has to be an open and public group —it can’t be a Closed or Secret Group."
      },
      {
        "icon": "course/en/animations/mob_ani/2_icon.png",
        "text": "Geographic IP Address Restriction",
        "popup": "Facebook and Instagram ads are reviewed from a variety of international locations, so if you’re directing people to a website that’s restricted to people in certain regions, your ad may not be approved."
      },
      {
        "icon": "course/en/animations/mob_ani/3_icon.png",
        "text": "Error Pages",
        "popup": "Your landing page must function in all browsers and can’t lead people to a site that is under construction or an “error page.” You can check this by confirming that any tracking URL properly redirects to your desired landing page."
      },
      {
        "icon": "course/en/animations/mob_ani/4_icon.png",
        "text": "Web of Trust",
        "popup": "The landing page linked to your ad must not have been negatively flagged by Web of Trust, a website review service that has no affiliation with Facebook.<br><br>You can learn more about your site’s rating <a href='http://www.mywot.com' target='new'>here</a>.<br><br>Also, your landing page must not initiate a download or require an additional program or application to access the content, or require people to click through multiple ads to access the page’s content."
      },
      {
        "icon": "course/en/animations/mob_ani/5_icon.png",
        "text": "Prohibited Content",
        "popup": "Your ad likely won’t be approved if the landing page contains products or services that are prohibited by our Advertising Policies, or shows ads that don’t apply to those same policies. This also includes misleading ad positioning, such as overly sensationalized headlines, and leading people to landing pages that contain minimal original content and a majority of unrelated or low-quality ad content. The landing page should also include a minimal number of ads, pop-ups, and content blockers."
      }
    ],
    "instruction":"",
    "_pageLevelProgress": {
        "_isEnabled": true
    }
}


  ///ADD THIS PATH TO ACCESS STYLE FROM RESOURCES
  ///var headerCenter = PageFlow.resources.textStyle_1;
